Arqui/Proyecto/MultiCycleFinal/Prueba 2/multi_tb.vcd
$date
	Fri Nov 24 20:21:41 2023
$end
$version
	Icarus Verilog
$end
$timescale
	1ps
$end
$scope module controller_tb $end
$var wire 32 ! WriteData [31:0] $end
$var wire 1 " MemWrite $end
$var wire 32 # DataAdr [31:0] $end
$var reg 1 $ clk $end
$var reg 1 % reset $end
$scope module dut $end
$var wire 1 $ clk $end
$var wire 1 % reset $end
$var wire 32 & WriteData [31:0] $end
$var wire 32 ' ReadData [31:0] $end
$var wire 1 " MemWrite $end
$var wire 32 ( Adr [31:0] $end
$scope module arm $end
$var wire 1 $ clk $end
$var wire 1 % reset $end
$var wire 1 ) carry $end
$var wire 32 * WriteData [31:0] $end
$var wire 1 + Shift $end
$var wire 2 , ResultSrc [1:0] $end
$var wire 1 - RegWrite $end
$var wire 2 . RegSrc [1:0] $end
$var wire 32 / ReadData [31:0] $end
$var wire 1 0 PCWrite $end
$var wire 1 " MemWrite $end
$var wire 32 1 Instr [31:0] $end
$var wire 2 2 ImmSrc [1:0] $end
$var wire 1 3 IRWrite $end
$var wire 1 4 AdrSrc $end
$var wire 32 5 Adr [31:0] $end
$var wire 2 6 ALUSrcB [1:0] $end
$var wire 2 7 ALUSrcA [1:0] $end
$var wire 4 8 ALUFlags [3:0] $end
$var wire 6 9 ALUControl [5:0] $end
$scope module c $end
$var wire 20 : Instr [31:12] $end
$var wire 1 $ clk $end
$var wire 1 % reset $end
$var wire 1 ) carry $end
$var wire 1 + Shift $end
$var wire 2 ; ResultSrc [1:0] $end
$var wire 1 - RegWrite $end
$var wire 1 < RegW $end
$var wire 2 = RegSrc [1:0] $end
$var wire 1 0 PCWrite $end
$var wire 1 > PCS $end
$var wire 1 ? NextPC $end
$var wire 1 " MemWrite $end
$var wire 1 @ MemW $end
$var wire 2 A ImmSrc [1:0] $end
$var wire 1 3 IRWrite $end
$var wire 2 B FlagW [1:0] $end
$var wire 1 4 AdrSrc $end
$var wire 2 C ALUSrcB [1:0] $end
$var wire 2 D ALUSrcA [1:0] $end
$var wire 4 E ALUFlags [3:0] $end
$var wire 6 F ALUControl [5:0] $end
$scope module cl $end
$var wire 4 G Cond [3:0] $end
$var wire 2 H FlagWrite [1:0] $end
$var wire 1 " MemWrite $end
$var wire 1 0 PCWrite $end
$var wire 1 - RegWrite $end
$var wire 1 $ clk $end
$var wire 1 % reset $end
$var wire 1 ) carry $end
$var wire 1 < RegW $end
$var wire 1 > PCS $end
$var wire 1 ? NextPC $end
$var wire 1 @ MemW $end
$var wire 4 I Flags [3:0] $end
$var wire 2 J FlagW [1:0] $end
$var wire 1 K CondExDelayed $end
$var wire 1 L CondEx $end
$var wire 4 M ALUFlags [3:0] $end
$scope module cc $end
$var wire 4 N Cond [3:0] $end
$var wire 4 O Flags [3:0] $end
$var wire 1 P ge $end
$var wire 1 Q zero $end
$var wire 1 R overflow $end
$var wire 1 S neg $end
$var wire 1 T carry $end
$var reg 1 L CondEx $end
$upscope $end
$scope module condreg $end
$var wire 1 $ clk $end
$var wire 1 L d $end
$var wire 1 % reset $end
$var reg 1 K q $end
$upscope $end
$scope module flagreg0 $end
$var wire 1 $ clk $end
$var wire 2 U d [1:0] $end
$var wire 1 V en $end
$var wire 1 % reset $end
$var reg 2 W q [1:0] $end
$upscope $end
$scope module flagreg1 $end
$var wire 1 $ clk $end
$var wire 2 X d [1:0] $end
$var wire 1 Y en $end
$var wire 1 % reset $end
$var reg 2 Z q [1:0] $end
$upscope $end
$upscope $end
$scope module dec $end
$var wire 6 [ Funct [5:0] $end
$var wire 2 \ ImmSrc [1:0] $end
$var wire 2 ] Op [1:0] $end
$var wire 1 > PCS $end
$var wire 4 ^ Rd [3:0] $end
$var wire 1 + Shift $end
$var wire 1 $ clk $end
$var wire 1 % reset $end
$var wire 1 _ blockShifter $end
$var wire 2 ` ResultSrc [1:0] $end
$var wire 1 < RegW $end
$var wire 2 a RegSrc [1:0] $end
$var wire 1 ? NextPC $end
$var wire 1 @ MemW $end
$var wire 1 3 IRWrite $end
$var wire 1 b Branch $end
$var wire 1 4 AdrSrc $end
$var wire 2 c ALUSrcB [1:0] $end
$var wire 2 d ALUSrcA [1:0] $end
$var wire 1 e ALUOp $end
$var reg 6 f ALUControl [5:0] $end
$var reg 2 g FlagW [1:0] $end
$var reg 1 h Shiftalfa $end
$scope module fsm $end
$var wire 6 i Funct [5:0] $end
$var wire 2 j Op [1:0] $end
$var wire 1 $ clk $end
$var wire 1 % reset $end
$var wire 2 k ResultSrc [1:0] $end
$var wire 1 < RegW $end
$var wire 1 ? NextPC $end
$var wire 1 @ MemW $end
$var wire 1 3 IRWrite $end
$var wire 1 b Branch $end
$var wire 1 4 AdrSrc $end
$var wire 2 l ALUSrcB [1:0] $end
$var wire 2 m ALUSrcA [1:0] $end
$var wire 1 e ALUOp $end
$var reg 1 _ blockShifter $end
$var reg 13 n controls [12:0] $end
$var reg 4 o nextstate [3:0] $end
$var reg 4 p state [3:0] $end
$upscope $end
$upscope $end
$upscope $end
$scope module dp $end
$var wire 6 q ALUControl [5:0] $end
$var wire 2 r ALUSrcA [1:0] $end
$var wire 2 s ALUSrcB [1:0] $end
$var wire 1 4 AdrSrc $end
$var wire 1 3 IRWrite $end
$var wire 2 t ImmSrc [1:0] $end
$var wire 1 0 PCWrite $end
$var wire 2 u RegSrc [1:0] $end
$var wire 1 - RegWrite $end
$var wire 2 v ResultSrc [1:0] $end
$var wire 1 + Shift $end
$var wire 1 ) carry $end
$var wire 1 $ clk $end
$var wire 1 % reset $end
$var wire 32 w srcBshifted [31:0] $end
$var wire 32 x WriteData [31:0] $end
$var wire 32 y SrcB [31:0] $end
$var wire 32 z SrcA [31:0] $end
$var wire 32 { Result [31:0] $end
$var wire 32 | ReadData [31:0] $end
$var wire 32 } RD2 [31:0] $end
$var wire 32 ~ RD1 [31:0] $end
$var wire 4 !" RA2 [3:0] $end
$var wire 4 "" RA1 [3:0] $end
$var wire 32 #" PC [31:0] $end
$var wire 32 $" Instr [31:0] $end
$var wire 32 %" ExtImm [31:0] $end
$var wire 32 &" Data [31:0] $end
$var wire 32 '" Adr [31:0] $end
$var wire 32 (" ALUResultFinal [31:0] $end
$var wire 32 )" ALUResult [31:0] $end
$var wire 32 *" ALUOut [31:0] $end
$var wire 4 +" ALUFlags [3:0] $end
$var wire 32 ," A [31:0] $end
$scope module adrmux $end
$var wire 1 4 s $end
$var wire 32 -" y [31:0] $end
$var wire 32 ." d1 [31:0] $end
$var wire 32 /" d0 [31:0] $end
$upscope $end
$scope module alu $end
$var wire 6 0" ALUControl [5:0] $end
$var wire 1 ) carry $end
$var wire 1 1" carryout $end
$var wire 1 2" overflow $end
$var wire 1 3" zero $end
$var wire 1 4" temp6 $end
$var wire 1 5" temp5 $end
$var wire 1 6" temp4 $end
$var wire 1 7" temp3 $end
$var wire 1 8" temp2 $end
$var wire 1 9" temp1 $end
$var wire 33 :" sum [32:0] $end
$var wire 16 ;" producto [15:0] $end
$var wire 1 <" negative $end
$var wire 32 =" b [31:0] $end
$var wire 32 >" a [31:0] $end
$var wire 4 ?" ALUFlags [3:0] $end
$var reg 32 @" Result [31:0] $end
$scope module producto_Result $end
$var wire 16 A" na [15:0] $end
$var wire 16 B" nb [15:0] $end
$var wire 16 C" producto [15:0] $end
$var wire 1 D" Bzero $end
$var wire 1 E" Bsubnormal $end
$var wire 1 F" Bsnan $end
$var wire 1 G" Bqnan $end
$var wire 1 H" Bnormal $end
$var wire 1 I" Binf $end
$var wire 1 J" Azero $end
$var wire 1 K" Asubnormal $end
$var wire 1 L" Asnan $end
$var wire 1 M" Aqnan $end
$var wire 1 N" Anormal $end
$var wire 1 O" Ainf $end
$var reg 16 P" Signo [15:0] $end
$var reg 5 Q" expa [4:0] $end
$var reg 5 R" expb [4:0] $end
$var reg 6 S" exponent [5:0] $end
$var reg 1 7" inf $end
$var reg 1 4" normal $end
$var reg 22 T" partialResult [21:0] $end
$var reg 16 U" productoTemp [15:0] $end
$var reg 1 8" qnan $end
$var reg 1 9" snan $end
$var reg 1 5" subnormal $end
$var reg 1 6" zero $end
$scope module A $end
$var wire 16 V" float [15:0] $end
$var wire 1 O" inf $end
$var wire 1 N" normal $end
$var wire 1 M" qnan $end
$var wire 1 L" snan $end
$var wire 1 K" subnormal $end
$var wire 1 J" zero $end
$var wire 1 W" sigZeroes $end
$var wire 1 X" expZeroes $end
$var wire 1 Y" expOnes $end
$upscope $end
$scope module B $end
$var wire 16 Z" float [15:0] $end
$var wire 1 I" inf $end
$var wire 1 H" normal $end
$var wire 1 G" qnan $end
$var wire 1 F" snan $end
$var wire 1 E" subnormal $end
$var wire 1 D" zero $end
$var wire 1 [" sigZeroes $end
$var wire 1 \" expZeroes $end
$var wire 1 ]" expOnes $end
$upscope $end
$upscope $end
$upscope $end
$scope module aluoutreg $end
$var wire 1 $ clk $end
$var wire 1 % reset $end
$var wire 32 ^" d [31:0] $end
$var reg 32 _" q [31:0] $end
$upscope $end
$scope module aluresultmux $end
$var wire 32 `" d0 [31:0] $end
$var wire 1 + s $end
$var wire 32 a" y [31:0] $end
$var wire 32 b" d1 [31:0] $end
$upscope $end
$scope module datareg $end
$var wire 1 $ clk $end
$var wire 1 % reset $end
$var wire 32 c" d [31:0] $end
$var reg 32 d" q [31:0] $end
$upscope $end
$scope module ext $end
$var wire 2 e" ImmSrc [1:0] $end
$var wire 24 f" Instr [23:0] $end
$var reg 32 g" ExtImm [31:0] $end
$upscope $end
$scope module ir $end
$var wire 1 $ clk $end
$var wire 1 3 en $end
$var wire 1 % reset $end
$var wire 32 h" d [31:0] $end
$var reg 32 i" q [31:0] $end
$upscope $end
$scope module pcreg $end
$var wire 1 $ clk $end
$var wire 1 0 en $end
$var wire 1 % reset $end
$var wire 32 j" d [31:0] $end
$var reg 32 k" q [31:0] $end
$upscope $end
$scope module ra1mux $end
$var wire 4 l" d0 [3:0] $end
$var wire 4 m" d1 [3:0] $end
$var wire 1 n" s $end
$var wire 4 o" y [3:0] $end
$upscope $end
$scope module ra2mux $end
$var wire 4 p" d0 [3:0] $end
$var wire 4 q" d1 [3:0] $end
$var wire 1 r" s $end
$var wire 4 s" y [3:0] $end
$upscope $end
$scope module resmux $end
$var wire 32 t" d0 [31:0] $end
$var wire 32 u" d1 [31:0] $end
$var wire 32 v" d2 [31:0] $end
$var wire 2 w" s [1:0] $end
$var wire 32 x" y [31:0] $end
$upscope $end
$scope module rf $end
$var wire 1 $ clk $end
$var wire 32 y" r15 [31:0] $end
$var wire 4 z" ra1 [3:0] $end
$var wire 4 {" ra2 [3:0] $end
$var wire 4 |" wa3 [3:0] $end
$var wire 32 }" wd3 [31:0] $end
$var wire 1 - we3 $end
$var wire 32 ~" rd2 [31:0] $end
$var wire 32 !# rd1 [31:0] $end
$upscope $end
$scope module sh $end
$var wire 1 $ clk $end
$var wire 1 % rst $end
$var wire 5 "# shamt [4:0] $end
$var wire 2 ## shtype [1:0] $end
$var wire 32 $# a [31:0] $end
$var reg 32 %# y [31:0] $end
$upscope $end
$scope module srcamux $end
$var wire 32 &# d1 [31:0] $end
$var wire 32 '# d2 [31:0] $end
$var wire 2 (# s [1:0] $end
$var wire 32 )# y [31:0] $end
$var wire 32 *# d0 [31:0] $end
$upscope $end
$scope module srcareg $end
$var wire 1 $ clk $end
$var wire 32 +# d [31:0] $end
$var wire 1 % reset $end
$var reg 32 ,# q [31:0] $end
$upscope $end
$scope module srcbmux $end
$var wire 32 -# d0 [31:0] $end
$var wire 32 .# d1 [31:0] $end
$var wire 32 /# d2 [31:0] $end
$var wire 2 0# s [1:0] $end
$var wire 32 1# y [31:0] $end
$upscope $end
$scope module wdreg $end
$var wire 1 $ clk $end
$var wire 32 2# d [31:0] $end
$var wire 1 % reset $end
$var reg 32 3# q [31:0] $end
$upscope $end
$upscope $end
$upscope $end
$scope module mem $end
$var wire 32 4# a [31:0] $end
$var wire 1 $ clk $end
$var wire 32 5# rd [31:0] $end
$var wire 32 6# wd [31:0] $end
$var wire 1 " we $end
$upscope $end
$upscope $end
$upscope $end
$enddefinitions $end
#0
$dumpvars
b0 6#
b11100000010011110000000000001111 5#
b0 4#
b0 3#
bx 2#
b100 1#
b10 0#
b100 /#
b0 .#
bx -#
b0 ,#
bx +#
b0 *#
b0 )#
b1 (#
b0 '#
b0 &#
bx %#
b0 $#
b0 ##
b0 "#
bx !#
bx ~"
b100 }"
b0 |"
b0 {"
b0 z"
b100 y"
b100 x"
b10 w"
b100 v"
b0 u"
b0 t"
b0 s"
0r"
b0 q"
b0 p"
b0 o"
0n"
b1111 m"
b0 l"
b0 k"
b100 j"
b0 i"
b11100000010011110000000000001111 h"
b0 g"
b0 f"
b0 e"
b0 d"
b11100000010011110000000000001111 c"
b100 b"
b100 a"
b100 `"
b0 _"
b100 ^"
0]"
1\"
0["
b100 Z"
0Y"
1X"
1W"
b0 V"
b0 U"
bx T"
bx S"
bx R"
b10001 Q"
b0 P"
0O"
0N"
0M"
0L"
0K"
1J"
0I"
0H"
0G"
0F"
1E"
0D"
b0 C"
b100 B"
b0 A"
b100 @"
b0 ?"
b0 >"
b100 ="
0<"
b0 ;"
b100 :"
09"
08"
07"
16"
05"
04"
03"
02"
01"
b0 0"
b0 /"
b0 ."
b0 -"
b0 ,"
b0 +"
b0 *"
b100 )"
b100 ("
b0 '"
b0 &"
b0 %"
b0 $"
b0 #"
b0 ""
b0 !"
bx ~
bx }
b11100000010011110000000000001111 |
b100 {
b0 z
b100 y
b0 x
bx w
b10 v
b0 u
b0 t
b10 s
b1 r
b0 q
b0 p
b1 o
b1000101001100 n
b1 m
b10 l
b10 k
b0 j
b0 i
0h
b0 g
b0 f
0e
b1 d
b10 c
0b
b0 a
b10 `
0_
b0 ^
b0 ]
b0 \
b0 [
b0 Z
0Y
b0 X
b0 W
0V
b0 U
0T
0S
0R
0Q
1P
b0 O
b0 N
b0 M
0L
0K
b0 J
b0 I
b0 H
b0 G
b0 F
b0 E
b1 D
b10 C
b0 B
b0 A
0@
1?
0>
b0 =
0<
b10 ;
b0 :
b0 9
b0 8
b1 7
b10 6
b0 5
04
13
b0 2
b0 1
10
b11100000010011110000000000001111 /
b0 .
0-
b10 ,
0+
b0 *
0)
b0 (
b11100000010011110000000000001111 '
b0 &
1%
1$
b0 #
0"
b0 !
$end
#5000
b0 w
b0 %#
b0 -#
0$
#10000
1$
#15000
0$
#20000
1$
#22000
0%
#25000
0$
#30000
1K"
07"
b0 ;"
b0 C"
b0 U"
b100000010000000010000 T"
b110001 S"
b10001 R"
b1000 {
b1000 j"
b1000 x"
b1000 y"
b1000 }"
0J"
b1000 ("
b1000 ^"
b1000 a"
b1000 v"
0W"
16"
b1000 )"
b1000 @"
b1000 `"
b1000 }
b1000 ~"
b1000 2#
b1000 ~
b1000 !#
b1000 +#
1L
b100 A"
b100 V"
b1000 :"
00
b1111 %"
b1111 g"
b1111 .#
b1111 !"
b1111 s"
b1111 {"
b1111 ""
b1111 o"
b1111 z"
b100 [
b100 i
b1110 G
b1110 N
b100 z
b100 >"
b100 )#
b11100101100100000001000001110000 '
b11100101100100000001000001110000 /
b11100101100100000001000001110000 |
b11100101100100000001000001110000 c"
b11100101100100000001000001110000 h"
b11100101100100000001000001110000 5#
0?
03
b10011110000000000001111 f"
b1111 p"
b1111 l"
b11100000010011110000 :
b100 #
b100 (
b100 5
b100 '"
b100 -"
b100 4#
b1001100 n
b110 o
b100 *"
b100 ."
b100 _"
b100 t"
b100 '#
bx !
bx &
bx *
bx x
bx $#
bx 3#
bx 6#
bx ,"
bx *#
bx ,#
b11100000010011110000000000001111 &"
b11100000010011110000000000001111 d"
b11100000010011110000000000001111 u"
b11100000010011110000000000001111 1
b11100000010011110000000000001111 $"
b11100000010011110000000000001111 i"
b100 #"
b100 /"
b100 k"
b100 &#
b1 p
1$
#35000
bx w
bx %#
bx -#
0$
#40000
x2"
bx U
xH"
xF"
x1"
14"
bx T"
bx S"
bx R"
x<"
xE"
xD"
xI"
xG"
b1000 A"
b1000 V"
x]"
x\"
x["
bx ;"
bx C"
bx U"
b0x P"
06"
bx X
bx ("
bx ^"
bx a"
bx v"
b1000 z
b1000 >"
b1000 )#
bx B"
bx Z"
bx 8
bx E
bx M
bx +"
bx ?"
x3"
bx )"
bx @"
bx `"
bx :"
bx y
bx ="
bx b"
bx 1#
b1 9
b1 F
b1 f
b1 q
b1 0"
b0 ,
b0 ;
b0 `
b0 k
b0 v
b0 w"
b0 7
b0 D
b0 d
b0 m
b0 r
b0 (#
b0 6
b0 C
b0 c
b0 l
b0 s
b0 0#
1e
1_
b1 n
b1000 o
b110 p
1K
b11100101100100000001000001110000 &"
b11100101100100000001000001110000 d"
b11100101100100000001000001110000 u"
b1000 ,"
b1000 *#
b1000 ,#
b1000 !
b1000 &
b1000 *
b1000 x
b1000 $#
b1000 3#
b1000 6#
b1000 *"
b1000 ."
b1000 _"
b1000 t"
b1000 '#
1$
#45000
b0 U
02"
0H"
0F"
16"
01"
0<"
b1 X
b0 ("
b0 ^"
b0 a"
b0 v"
1E"
0D"
0I"
0G"
b100 8
b100 E
b100 M
b100 +"
b100 ?"
13"
b0 )"
b0 @"
b0 `"
0]"
1\"
0["
07"
b0 ;"
b0 C"
b0 U"
b100000100000001000000 T"
b110001 S"
b10001 R"
b0 P"
04"
b0 :"
b1000 B"
b1000 Z"
b1000 y
b1000 ="
b1000 b"
b1000 1#
b1000 w
b1000 %#
b1000 -#
0$
#50000
b0 X
b10000 ("
b10000 ^"
b10000 a"
b10000 v"
b0 8
b0 E
b0 M
b0 +"
b0 ?"
03"
b10000 )"
b10000 @"
b10000 `"
b10000 :"
b0 ~
b0 !#
b0 +#
b0 }
b0 ~"
b0 2#
1-
b0 9
b0 F
b0 f
b0 q
b0 0"
b0 {
b0 j"
b0 x"
b0 y"
b0 }"
1<
0e
0_
b1000000000 n
b0 o
b0 *"
b0 ."
b0 _"
b0 t"
b0 '#
b1000 p
1$
#55000
0$
#60000
07"
b0 ;"
b0 C"
b0 U"
b100000010000000010000 T"
1K"
b100 B"
b100 Z"
0J"
b1000 ("
b1000 ^"
b1000 a"
b1000 v"
b100 y
b100 ="
b100 b"
b100 1#
0W"
16"
b1000 )"
b1000 @"
b1000 `"
10
0-
b100 A"
b100 V"
b1000 :"
b1000 ~
b1000 !#
b1000 +#
b1000 }
b1000 ~"
b1000 2#
1?
0<
13
b10 ,
b10 ;
b10 `
b10 k
b10 v
b10 w"
b1 7
b1 D
b1 d
b1 m
b1 r
b1 (#
b10 6
b10 C
b10 c
b10 l
b10 s
b10 0#
b100 z
b100 >"
b100 )#
b1000 {
b1000 j"
b1000 x"
b1000 y"
b1000 }"
b1000101001100 n
b1 o
b0 p
b0 ,"
b0 *#
b0 ,#
b0 !
b0 &
b0 *
b0 x
b0 $#
b0 3#
b0 6#
b10000 *"
b10000 ."
b10000 _"
b10000 t"
b10000 '#
1$
#65000
b0 w
b0 %#
b0 -#
0$
#70000
b1100 {
b1100 j"
b1100 x"
b1100 y"
b1100 }"
b1100 ("
b1100 ^"
b1100 a"
b1100 v"
16"
b1100 )"
b1100 @"
b1100 `"
bx }
bx ~"
bx 2#
b0 ~
b0 !#
b0 +#
1r"
b1000 A"
b1000 V"
b1100 :"
00
b1110000 %"
b1110000 g"
b1110000 .#
b1 !"
b1 s"
b1 {"
b0 ""
b0 o"
b0 z"
b1 2
b1 A
b1 \
b1 t
b1 e"
b10 .
b10 =
b10 a
b10 u
b1 ]
b1 j
b11001 [
b11001 i
b1 ^
b1000 z
b1000 >"
b1000 )#
b11100101100100000010000001110100 '
b11100101100100000010000001110100 /
b11100101100100000010000001110100 |
b11100101100100000010000001110100 c"
b11100101100100000010000001110100 h"
b11100101100100000010000001110100 5#
0?
03
b11 ##
b100100000001000001110000 f"
b1 |"
b1 q"
b0 p"
b0 l"
b11100101100100000001 :
b1000 #
b1000 (
b1000 5
b1000 '"
b1000 -"
b1000 4#
b1001100 n
b10 o
b1000 *"
b1000 ."
b1000 _"
b1000 t"
b1000 '#
b1000 !
b1000 &
b1000 *
b1000 x
b1000 $#
b1000 3#
b1000 6#
b1000 ,"
b1000 *#
b1000 ,#
b11100101100100000001000001110000 1
b11100101100100000001000001110000 $"
b11100101100100000001000001110000 i"
b1000 #"
b1000 /"
b1000 k"
b1000 &#
b1 p
1$
#75000
b1000 w
b1000 %#
b1000 -#
0$
#80000
0K"
1J"
1W"
b1110000 ("
b1110000 ^"
b1110000 a"
b1110000 v"
b0 A"
b0 V"
16"
b1110000 )"
b1110000 @"
b1110000 `"
b0 z
b0 >"
b0 )#
b1110000 B"
b1110000 Z"
b1110000 :"
b1110000 y
b1110000 ="
b1110000 b"
b1110000 1#
b0 ,
b0 ;
b0 `
b0 k
b0 v
b0 w"
b0 7
b0 D
b0 d
b0 m
b0 r
b0 (#
b1 6
b1 C
b1 c
b1 l
b1 s
b1 0#
b10 n
b11 o
b10 p
b11100101100100000010000001110100 &"
b11100101100100000010000001110100 d"
b11100101100100000010000001110100 u"
b0 ,"
b0 *#
b0 ,#
bx !
bx &
bx *
bx x
bx $#
bx 3#
bx 6#
b1100 *"
b1100 ."
b1100 _"
b1100 t"
b1100 '#
1$
#85000
bx w
bx %#
bx -#
0$
#90000
xH"
xF"
bx U
x2"
xE"
xD"
xI"
xG"
x1"
x<"
bx X
bx ("
bx ^"
bx a"
bx v"
x]"
x\"
x["
bx000000000000000 ;"
bx000000000000000 C"
bx000000000000000 U"
b0x P"
16"
bx 8
bx E
bx M
bx +"
bx ?"
x3"
bx )"
bx @"
bx `"
bx B"
bx Z"
bx :"
bx y
bx ="
bx b"
bx 1#
b100001000000000 '
b100001000000000 /
b100001000000000 |
b100001000000000 c"
b100001000000000 h"
b100001000000000 5#
b1110000 #
b1110000 (
b1110000 5
b1110000 '"
b1110000 -"
b1110000 4#
b1110000 {
b1110000 j"
b1110000 x"
b1110000 y"
b1110000 }"
14
b0 6
b0 C
b0 c
b0 l
b0 s
b0 0#
b10000000 n
b100 o
b1110000 *"
b1110000 ."
b1110000 _"
b1110000 t"
b1110000 '#
b11 p
1$
#95000
0$
#100000
1-
1<
04
b1 ,
b1 ;
b1 `
b1 k
b1 v
b1 w"
b100001000000000 {
b100001000000000 j"
b100001000000000 x"
b100001000000000 y"
b100001000000000 }"
b11100101100100000010000001110100 '
b11100101100100000010000001110100 /
b11100101100100000010000001110100 |
b11100101100100000010000001110100 c"
b11100101100100000010000001110100 h"
b11100101100100000010000001110100 5#
b1000100000 n
b0 o
b1000 #
b1000 (
b1000 5
b1000 '"
b1000 -"
b1000 4#
b100 p
b100001000000000 &"
b100001000000000 d"
b100001000000000 u"
bx *"
bx ."
bx _"
bx t"
bx '#
1$
#105000
0$
#110000
1K"
07"
b100000011000000100000 T"
0J"
0H"
0F"
b0 U
02"
0W"
1E"
0D"
0I"
0G"
01"
0<"
b0 X
b1100 ("
b1100 ^"
b1100 a"
b1100 v"
b1000 A"
b1000 V"
0]"
1\"
0["
b0 ;"
b0 C"
b0 U"
b0 P"
16"
b0 8
b0 E
b0 M
b0 +"
b0 ?"
03"
b1100 )"
b1100 @"
b1100 `"
b1000 z
b1000 >"
b1000 )#
b100 B"
b100 Z"
b1100 :"
b100 y
b100 ="
b100 b"
b100 1#
10
0-
b1100 {
b1100 j"
b1100 x"
b1100 y"
b1100 }"
1?
0<
13
b10 ,
b10 ;
b10 `
b10 k
b10 v
b10 w"
b1 7
b1 D
b1 d
b1 m
b1 r
b1 (#
b10 6
b10 C
b10 c
b10 l
b10 s
b10 0#
b1000101001100 n
b1 o
b100001000000000 }
b100001000000000 ~"
b100001000000000 2#
b11100101100100000010000001110100 &"
b11100101100100000010000001110100 d"
b11100101100100000010000001110100 u"
b0 p
1$
#115000
0$
#120000
b10000 {
b10000 j"
b10000 x"
b10000 y"
b10000 }"
b10000 ("
b10000 ^"
b10000 a"
b10000 v"
16"
b10000 )"
b10000 @"
b10000 `"
00
b1100 A"
b1100 V"
b10000 :"
bx }
bx ~"
bx 2#
0?
03
b1100 z
b1100 >"
b1100 )#
b11100001110000010001000000000010 '
b11100001110000010001000000000010 /
b11100001110000010001000000000010 |
b11100001110000010001000000000010 c"
b11100001110000010001000000000010 h"
b11100001110000010001000000000010 5#
b1110100 %"
b1110100 g"
b1110100 .#
b10 !"
b10 s"
b10 {"
b10 ^
b1001100 n
b10 o
b1100 #
b1100 (
b1100 5
b1100 '"
b1100 -"
b1100 4#
b100100000010000001110100 f"
b10 |"
b10 q"
b100 p"
b11100101100100000010 :
b1 p
b1100 #"
b1100 /"
b1100 k"
b1100 &#
b11100101100100000010000001110100 1
b11100101100100000010000001110100 $"
b11100101100100000010000001110100 i"
b100001000000000 !
b100001000000000 &
b100001000000000 *
b100001000000000 x
b100001000000000 $#
b100001000000000 3#
b100001000000000 6#
b1100 *"
b1100 ."
b1100 _"
b1100 t"
b1100 '#
1$
#125000
b100001000000000 w
b100001000000000 %#
b100001000000000 -#
0$
#130000
0K"
1J"
1W"
b1110100 ("
b1110100 ^"
b1110100 a"
b1110100 v"
b0 A"
b0 V"
16"
b1110100 )"
b1110100 @"
b1110100 `"
b0 z
b0 >"
b0 )#
b1110100 B"
b1110100 Z"
b1110100 :"
b1110100 y
b1110100 ="
b1110100 b"
b1110100 1#
b0 ,
b0 ;
b0 `
b0 k
b0 v
b0 w"
b0 7
b0 D
b0 d
b0 m
b0 r
b0 (#
b1 6
b1 C
b1 c
b1 l
b1 s
b1 0#
b10 n
b11 o
b10000 *"
b10000 ."
b10000 _"
b10000 t"
b10000 '#
bx !
bx &
bx *
bx x
bx $#
bx 3#
bx 6#
b11100001110000010001000000000010 &"
b11100001110000010001000000000010 d"
b11100001110000010001000000000010 u"
b10 p
1$
#135000
bx w
bx %#
bx -#
0$
#140000
xH"
xF"
bx U
x2"
xE"
xD"
xI"
xG"
x1"
x<"
bx X
bx ("
bx ^"
bx a"
bx v"
x]"
x\"
x["
bx000000000000000 ;"
bx000000000000000 C"
bx000000000000000 U"
b0x P"
16"
bx 8
bx E
bx M
bx +"
bx ?"
x3"
bx )"
bx @"
bx `"
bx B"
bx Z"
bx :"
bx y
bx ="
bx b"
bx 1#
b100000000000000 '
b100000000000000 /
b100000000000000 |
b100000000000000 c"
b100000000000000 h"
b100000000000000 5#
b1110100 #
b1110100 (
b1110100 5
b1110100 '"
b1110100 -"
b1110100 4#
14
b0 6
b0 C
b0 c
b0 l
b0 s
b0 0#
b1110100 {
b1110100 j"
b1110100 x"
b1110100 y"
b1110100 }"
b10000000 n
b100 o
b11 p
b1110100 *"
b1110100 ."
b1110100 _"
b1110100 t"
b1110100 '#
1$
#145000
0$
#150000
1-
b100000000000000 {
b100000000000000 j"
b100000000000000 x"
b100000000000000 y"
b100000000000000 }"
b11100001110000010001000000000010 '
b11100001110000010001000000000010 /
b11100001110000010001000000000010 |
b11100001110000010001000000000010 c"
b11100001110000010001000000000010 h"
b11100001110000010001000000000010 5#
1<
04
b1 ,
b1 ;
b1 `
b1 k
b1 v
b1 w"
b1100 #
b1100 (
b1100 5
b1100 '"
b1100 -"
b1100 4#
b1000100000 n
b0 o
bx *"
bx ."
bx _"
bx t"
bx '#
b100000000000000 &"
b100000000000000 d"
b100000000000000 u"
b100 p
1$
#155000
0$
#160000
1K"
07"
b100000100000000110000 T"
0J"
0H"
0F"
b0 U
02"
0W"
1E"
0D"
0I"
0G"
01"
0<"
b0 X
b10000 ("
b10000 ^"
b10000 a"
b10000 v"
b1100 A"
b1100 V"
0]"
1\"
0["
b0 ;"
b0 C"
b0 U"
b0 P"
16"
b0 8
b0 E
b0 M
b0 +"
b0 ?"
03"
b10000 )"
b10000 @"
b10000 `"
b1100 z
b1100 >"
b1100 )#
b100 B"
b100 Z"
b10000 :"
b100 y
b100 ="
b100 b"
b100 1#
10
0-
1?
0<
13
b10 ,
b10 ;
b10 `
b10 k
b10 v
b10 w"
b1 7
b1 D
b1 d
b1 m
b1 r
b1 (#
b10 6
b10 C
b10 c
b10 l
b10 s
b10 0#
b10000 {
b10000 j"
b10000 x"
b10000 y"
b10000 }"
b1000101001100 n
b1 o
b100000000000000 }
b100000000000000 ~"
b100000000000000 2#
b0 p
b11100001110000010001000000000010 &"
b11100001110000010001000000000010 d"
b11100001110000010001000000000010 u"
1$
#165000
0$
